{
    "version": "1.0.0",
    "summary": "Tools for view function composition",
    "repository": "https://github.com/Fresheyeball/perspective.git",
    "license": "BSD3",
    "source-directories": [
        "."
    ],
    "exposed-modules": ["Perspective"],
    "dependencies": {
        "elm-lang/core": "4.0.5 <= v < 5.0.0",
        "elm-lang/html": "1.1.0 <= v < 2.0.0"
    },
    "elm-version": "0.17.1 <= v < 0.18.0"
}
